<?xml version="1.0" encoding="UTF-8"?>
<svg width="100%" height="100%" viewBox="0 0 60 60" version="1.1" xmlns="http://www.w3.org/2000/svg" xmlns:xlink="http://www.w3.org/1999/xlink">
    <g id="Page-1" stroke="none" stroke-width="1" fill="none" fill-rule="evenodd" stroke-linecap="square">
        <g id="2_1_Pesquisa" transform="translate(-922.000000, -71.000000)" stroke="#FFFFFF" stroke-width="2.25">
            <g id="Group-2" transform="translate(-10.000000, 0.000000)">
                <g id="Group" transform="translate(932.000000, 71.000000)">
                    <path d="M22.2931034,22.2931034 L38.7304326,38.7304326" id="Line"></path>
                    <path d="M22.2931034,22.2931034 L38.7304326,38.7304326" id="Line" transform="translate(30.500000, 30.500000) scale(-1, 1) translate(-30.500000, -30.500000) "></path>
                </g>
            </g>
        </g>
    </g>
</svg>